time_point,Score
1,6
1,6
1,0
1,9
1,1
1,18
1,17
1,6
1,2
1,3
2,13
2,23
2,7
2,45
2,20
2,57
2,39
2,42
2,16
2,30
3,19
3,37
3,12
3,71
3,39
3,99
3,59
3,88
3,27
3,58
4,26
4,47
4,10
4,91
4,48
4,116
4,64
4,118
4,31
4,71