time_point,Score,Group
1,6,1
1,6,1
1,0,1
1,9,1
1,1,1
1,18,1
1,17,1
1,6,1
1,2,1
1,3,1
2,13,1
2,23,1
2,7,1
2,45,1
2,20,1
2,57,1
2,39,1
2,42,1
2,16,1
2,30,1
3,19,1
3,37,1
3,12,1
3,71,1
3,39,1
3,99,1
3,59,1
3,88,1
3,27,1
3,58,1
4,26,1
4,47,1
4,10,1
4,91,1
4,48,1
4,116,1
4,64,1
4,118,1
4,31,1
4,71,1
1,9,2
1,5,2
1,5,2
1,10,2
1,3,2
1,12,2
1,26,2
1,1,2
1,11,2
2,25,2
2,18,2
2,28,2
2,31,2
2,18,2
2,37,2
2,41,2
2,10,2
2,44,2
3,43,2
3,33,2
3,51,2
3,60,2
3,32,2
3,32,2
3,67,2
3,19,2
3,63,2
4,51,2
4,40,2
4,54,2
4,67,2
4,35,2
4,41,2
4,70,2
4,21,2
4,81,2