time_point,Score,Group,N_Lang,SleepQ
2,13,1,6,3
2,23,1,3,3
2,7,1,3,2
2,45,1,3,3
2,20,1,2,3
2,57,1,5,4
2,39,1,2,3
2,42,1,3,4
2,16,1,2,3
2,30,1,3,3
3,19,1,6,4
3,37,1,3,3
3,12,1,3,5
3,71,1,3,3
3,39,1,2,2
3,99,1,5,5
3,59,1,2,4
3,88,1,3,5
3,27,1,2,2
3,58,1,3,4
4,26,1,6,4
4,47,1,3,3
4,10,1,3,5
4,91,1,3,3
4,48,1,2,5
4,116,1,5,4
4,64,1,2,3
4,118,1,3,4
4,31,1,2,3
4,71,1,3,4
2,25,2,3,5
2,18,2,2,4
2,28,2,3,5
2,31,2,2,4
2,18,2,2,2
2,37,2,4,5
2,41,2,3,3
2,10,2,4,3
2,44,2,5,5
3,43,2,3,5
3,33,2,2,4
3,51,2,3,3
3,60,2,2,4
3,32,2,2,3
3,32,2,4,5
3,67,2,3,3
3,19,2,4,4
3,63,2,5,4
4,51,2,3,4
4,40,2,2,2
4,54,2,3,2
4,67,2,2,4
4,35,2,2,3
4,41,2,4,5
4,70,2,3,2
4,21,2,4,3
4,81,2,5,5