GROUP,PCODE,AGE,GENDER,Prim_Lang,N_Lang,Score_L1,Score_S_L1,Score_US_L1,Score_L2,Score_S_L2,Score_US_L2,SleepQ_L2,Score_L3,Score_S_L3,Score_US_L3,SleepQ_L3,Score_FT,Score_S_FT,Score_US_FT,SleepQ_FT
2,VAMA7A,28,m,English,3,9,5,4,25,13,12,5,43,23,20,5,51,27,24,4
2,SIAP1S,22,m,German,2,5,4,1,18,10,8,4,33,19,14,4,40,23,17,2
2,PEOC3R,25,m,English,3,5,3,2,28,16,12,5,51,27,24,3,54,31,23,2
2,amau1q,23,m,German,2,10,6,4,31,18,13,4,60,37,23,4,67,41,26,4
2,BRMA9J,23,f,German,2,3,1,2,18,11,7,2,32,17,15,3,35,21,14,3
2,GEMA6J,20,f,German,4,12,7,5,37,15,22,5,32,19,13,5,41,24,17,5
2,KUAU7X,31,m,German,3,26,10,16,41,23,18,3,67,34,33,3,70,40,30,2
2,FASE9M,20,f,Arabic,4,1,0,1,10,1,9,3,19,6,13,4,21,7,14,3
2,chfe8a,22,f,German,5,11,4,7,44,22,22,5,63,34,29,4,81,41,40,5
1,NIAU7S,29,f,Hindi,6,6,2,4,13,5,8,3,19,9,10,4,26,13,13,4
1,DEDE3M,33,f,Persian,3,6,4,2,23,13,10,3,37,18,19,3,47,27,20,3
1,NEJA7F,34,m,German,3,0,0,0,7,4,3,2,12,6,6,5,10,5,5,5
1,EBJU4H,25,m,Arabic,3,9,3,6,45,32,13,3,71,41,30,3,91,51,40,3
1,14,22,m,English,2,1,1,0,20,7,13,3,39,20,19,2,48,29,19,5
1,NEFE2R,20,f,German,5,18,12,6,57,27,30,4,99,50,49,5,116,61,55,4
1,RAAP9Z,21,m,German,2,17,12,5,39,21,18,3,59,31,28,4,64,31,33,3
1,BUFE4N,19,f,English,3,6,3,3,42,24,18,4,88,51,37,5,118,64,54,4
1,RUAU3C,23,f,German,2,2,2,0,16,9,7,3,27,15,12,2,31,18,13,3
1,MAJU7Y,24,f,German,3,3,2,1,30,14,16,3,58,28,30,4,71,38,33,4