time_point,Score,Group
1,4,1
1,2,1
1,0,1
1,6,1
1,0,1
1,6,1
1,5,1
1,3,1
1,0,1
1,1,1
2,8,1
2,10,1
2,3,1
2,13,1
2,13,1
2,30,1
2,18,1
2,18,1
2,7,1
2,16,1
3,10,1
3,19,1
3,6,1
3,30,1
3,19,1
3,49,1
3,28,1
3,37,1
3,12,1
3,30,1
4,13,1
4,20,1
4,5,1
4,40,1
4,19,1
4,55,1
4,33,1
4,54,1
4,13,1
4,33,1
1,4,2
1,1,2
1,2,2
1,4,2
1,2,2
1,5,2
1,16,2
1,1,2
1,7,2
2,12,2
2,8,2
2,12,2
2,13,2
2,7,2
2,22,2
2,18,2
2,9,2
2,22,2
3,20,2
3,14,2
3,24,2
3,23,2
3,15,2
3,13,2
3,33,2
3,13,2
3,29,2
4,24,2
4,17,2
4,23,2
4,26,2
4,14,2
4,17,2
4,30,2
4,14,2
4,40,2